…
``` r
d %>% 
  filter(!is.na(hcc_log_m)) %>% 
  distinct(ID, phase, hcc_log_m) %>% 
  mutate(
    hcc = !is.na(hcc_log_m)
  ) %>% 
  select(-hcc_log_m) %>% 
  distinct(ID, phase, hcc) %>% 
  spread(phase, hcc) 
```

    ## # A tibble: 85 × 6
    ##       ID `1st trimester` `2nd trimester` `3rd trimester` `3 mo. postpartum`
    ##    <dbl> <lgl>           <lgl>           <lgl>           <lgl>             
    ##  1  1001 TRUE            TRUE            TRUE            NA                
    ##  2  1002 NA              TRUE            TRUE            NA                
    ##  3  1003 TRUE            TRUE            NA              NA                
    ##  4  1004 TRUE            TRUE            NA              NA                
    ##  5  1005 TRUE            TRUE            TRUE            TRUE              
    ##  6  1007 TRUE            TRUE            TRUE            TRUE              
    ##  7  1008 TRUE            TRUE            NA              NA                
    ##  8  1010 NA              TRUE            TRUE            TRUE              
    ##  9  1011 TRUE            TRUE            TRUE            TRUE              
    ## 10  1013 TRUE            TRUE            NA              NA                
    ## # … with 75 more rows, and 1 more variable: 6 mo. postpartum <lgl>
…
